Lab3/src/AudDSP_waveform.vcd
$date
	Sat Nov 02 18:48:52 2024
$end
$version
	Icarus Verilog
$end
$timescale
	1s
$end
$scope module AudDSP_tb $end
$var wire 1 ! i_daclrck $end
$var wire 20 " o_sram_addr [19:0] $end
$var wire 1 # o_player_en $end
$var wire 16 $ o_dac_data [15:0] $end
$var parameter 64 % SRAM_SIZE $end
$var reg 1 & clk $end
$var reg 1 ' i_daclrck_driver $end
$var reg 1 ( i_pause $end
$var reg 1 ) i_player_ack $end
$var reg 1 * i_rst_n $end
$var reg 1 + i_slow_0 $end
$var reg 1 , i_slow_1 $end
$var reg 8 - i_speed [7:0] $end
$var reg 16 . i_sram_data [15:0] $end
$var reg 1 / i_start $end
$var reg 1 0 i_stop $end
$scope module dut $end
$var wire 1 & i_clk $end
$var wire 1 ! i_daclrck $end
$var wire 1 1 i_fast $end
$var wire 1 ( i_pause $end
$var wire 1 ) i_player_ack $end
$var wire 1 * i_rst_n $end
$var wire 1 + i_slow_0 $end
$var wire 1 , i_slow_1 $end
$var wire 8 2 i_speed [7:0] $end
$var wire 16 3 i_sram_data [15:0] $end
$var wire 1 / i_start $end
$var wire 1 0 i_stop $end
$var wire 16 4 o_dac_data [15:0] $end
$var wire 1 # o_player_en $end
$var wire 20 5 o_sram_addr [19:0] $end
$var parameter 21 6 END_ADDR $end
$var parameter 20 7 START_ADDR $end
$var parameter 8 8 x0_125 $end
$var parameter 8 9 x0_25 $end
$var parameter 8 : x0_5 $end
$var parameter 8 ; x1 $end
$var parameter 8 < x2 $end
$var parameter 8 = x4 $end
$var parameter 8 > x8 $end
$var reg 6 ? cnt [5:0] $end
$var reg 6 @ cnt_nxt [5:0] $end
$var reg 1 A daclrck_prev $end
$var reg 1 B daclrck_prev2 $end
$var reg 3 C fall_cnt [2:0] $end
$var reg 3 D fall_cnt_nxt [2:0] $end
$var reg 1 E o_player_en_r $end
$var reg 1 F o_player_en_w $end
$var reg 16 G o_processed_data_r [15:0] $end
$var reg 16 H o_processed_data_w [15:0] $end
$var reg 20 I o_sram_addr_r [19:0] $end
$var reg 20 J o_sram_addr_w [19:0] $end
$var reg 16 K old_data_r [15:0] $end
$var reg 16 L old_data_w [15:0] $end
$var reg 8 M speed_r [7:0] $end
$var reg 8 N speed_w [7:0] $end
$var reg 3 O state_r [2:0] $end
$var reg 3 P state_w [2:0] $end
$var reg 20 Q temp_data1 [19:0] $end
$var reg 20 R temp_data2 [19:0] $end
$var reg 1 S transmission_en_r $end
$var reg 1 T transmission_en_w $end
$upscope $end
$scope begin $unm_blk_75 $end
$var integer 32 U i [31:0] $end
$upscope $end
$upscope $end
$enddefinitions $end
$comment Show the parameter values. $end
$dumpall
b1000000 >
b100000 =
b10000 <
b1000 ;
b100 :
b10 9
b1 8
b0 7
b100000000000000000000 6
b100000000000000000000 %
$end
#0
$dumpvars
b100000000000000000000 U
0T
0S
bx R
bx Q
b0 P
b0 O
b1000 N
b1000 M
b0 L
b0 K
b0 J
b0 I
b0 H
b0 G
0F
0E
b0 D
b0 C
0B
0A
b0 @
b0 ?
b0 5
b0 4
bx 3
b1000 2
z1
00
0/
bx .
b1000 -
0,
0+
0*
0)
0(
0'
0&
b0 $
0#
b0 "
0!
$end
#5
b1010010110100101 .
b1010010110100101 3
1&
#10
0&
#15
1&
#20
0&
#25
1&
#30
0&
#35
1&
#40
0&
#45
1&
#50
0&
1*
#55
1&
#60
0&
#65
1&
#70
0&
#75
1&
#80
0&
#85
1&
#90
0&
#95
1&
#100
b1 P
0&
1/
#105
b1 J
b1010010110100101 H
b1 O
1&
#110
0&
#115
b1 J
b1010010110100101 $
b1010010110100101 4
b1010010110100101 G
1&
#120
0&
#125
1&
#130
0&
#135
1&
#140
0&
#145
1&
#150
0&
#155
1&
#160
0&
#165
1&
#170
0&
#175
1&
#180
0&
#185
1&
#190
0&
#195
1&
#200
b1 J
0&
0/
#205
1&
#210
0&
#215
1&
#220
0&
#225
1&
#230
0&
#235
1&
#240
0&
#245
1&
#250
0&
#255
1&
#260
0&
#265
1&
#270
0&
#275
1&
#280
0&
#285
1&
#290
0&
#295
b1 "
b1 5
b1 I
1A
b10 J
1!
1'
1&
#300
0&
#305
b1010010110100100 H
b10 J
1B
b1010010110100100 .
b1010010110100100 3
1&
#310
0&
#315
b10 J
b1010010110100100 $
b1010010110100100 4
b1010010110100100 G
1&
